centrePWMmk1/centrePWMmk1.sim/sim_1/behav/xsim/simulate.log
Vivado Simulator 2020.2
Time resolution is 1 ps
Time:                 1000, Counter:        -128, U: 0, V: 0, W: 0: dutyA:  45: dutyB:  85 :dutyC: 128
Time:                 3000, Counter:        -127, U: 0, V: 0, W: 0: dutyA:  45: dutyB:  85 :dutyC: 128
Time:                 5000, Counter:        -126, U: 0, V: 0, W: 0: dutyA:  45: dutyB:  85 :dutyC: 128
Time:                 7000, Counter:        -125, U: 0, V: 0, W: 0: dutyA:  45: dutyB:  85 :dutyC: 128
Time:                 9000, Counter:        -124, U: 0, V: 0, W: 0: dutyA:  45: dutyB:  85 :dutyC: 128
Time:                11000, Counter:        -123, U: 0, V: 0, W: 0: dutyA:  45: dutyB:  85 :dutyC: 128
Time:                13000, Counter:        -122, U: 0, V: 0, W: 0: dutyA:  45: dutyB:  85 :dutyC: 128
Time:                15000, Counter:        -121, U: 0, V: 0, W: 0: dutyA:  45: dutyB:  85 :dutyC: 128
Time:                17000, Counter:        -120, U: 0, V: 0, W: 0: dutyA:  45: dutyB:  85 :dutyC: 128
Time:                19000, Counter:        -119, U: 0, V: 0, W: 0: dutyA:  45: dutyB:  85 :dutyC: 128
Time:                21000, Counter:        -118, U: 0, V: 0, W: 0: dutyA:  45: dutyB:  85 :dutyC: 128
Time:                23000, Counter:        -117, U: 0, V: 0, W: 0: dutyA:  45: dutyB:  85 :dutyC: 128
Time:                25000, Counter:        -116, U: 0, V: 0, W: 0: dutyA:  45: dutyB:  85 :dutyC: 128
Time:                27000, Counter:        -115, U: 0, V: 0, W: 0: dutyA:  45: dutyB:  85 :dutyC: 128
Time:                29000, Counter:        -114, U: 0, V: 0, W: 0: dutyA:  45: dutyB:  85 :dutyC: 128
Time:                31000, Counter:        -113, U: 0, V: 0, W: 0: dutyA:  45: dutyB:  85 :dutyC: 128
Time:                33000, Counter:        -112, U: 0, V: 0, W: 0: dutyA:  45: dutyB:  85 :dutyC: 128
Time:                35000, Counter:        -111, U: 0, V: 0, W: 0: dutyA:  45: dutyB:  85 :dutyC: 128
Time:                37000, Counter:        -110, U: 0, V: 0, W: 0: dutyA:  45: dutyB:  85 :dutyC: 128
Time:                39000, Counter:        -109, U: 0, V: 0, W: 0: dutyA:  45: dutyB:  85 :dutyC: 128
Time:                41000, Counter:        -108, U: 0, V: 0, W: 0: dutyA:  45: dutyB:  85 :dutyC: 128
Time:                43000, Counter:        -107, U: 0, V: 0, W: 0: dutyA:  45: dutyB:  85 :dutyC: 128
Time:                45000, Counter:        -106, U: 0, V: 0, W: 0: dutyA:  45: dutyB:  85 :dutyC: 128
Time:                47000, Counter:        -105, U: 0, V: 0, W: 0: dutyA:  45: dutyB:  85 :dutyC: 128
Time:                49000, Counter:        -104, U: 0, V: 0, W: 0: dutyA:  45: dutyB:  85 :dutyC: 128
Time:                51000, Counter:        -103, U: 0, V: 0, W: 0: dutyA:  45: dutyB:  85 :dutyC: 128
Time:                53000, Counter:        -102, U: 0, V: 0, W: 0: dutyA:  45: dutyB:  85 :dutyC: 128
Time:                55000, Counter:        -101, U: 0, V: 0, W: 0: dutyA:  45: dutyB:  85 :dutyC: 128
Time:                57000, Counter:        -100, U: 0, V: 0, W: 0: dutyA:  45: dutyB:  85 :dutyC: 128
Time:                59000, Counter:         -99, U: 0, V: 0, W: 0: dutyA:  45: dutyB:  85 :dutyC: 128
Time:                61000, Counter:         -98, U: 0, V: 0, W: 0: dutyA:  45: dutyB:  85 :dutyC: 128
Time:                63000, Counter:         -97, U: 0, V: 0, W: 0: dutyA:  45: dutyB:  85 :dutyC: 128
Time:                65000, Counter:         -96, U: 0, V: 0, W: 0: dutyA:  45: dutyB:  85 :dutyC: 128
Time:                67000, Counter:         -95, U: 0, V: 0, W: 0: dutyA:  45: dutyB:  85 :dutyC: 128
Time:                69000, Counter:         -94, U: 0, V: 0, W: 0: dutyA:  45: dutyB:  85 :dutyC: 128
Time:                71000, Counter:         -93, U: 0, V: 0, W: 0: dutyA:  45: dutyB:  85 :dutyC: 128
Time:                73000, Counter:         -92, U: 0, V: 0, W: 0: dutyA:  45: dutyB:  85 :dutyC: 128
Time:                75000, Counter:         -91, U: 0, V: 0, W: 0: dutyA:  45: dutyB:  85 :dutyC: 128
Time:                77000, Counter:         -90, U: 0, V: 0, W: 0: dutyA:  45: dutyB:  85 :dutyC: 128
Time:                79000, Counter:         -89, U: 0, V: 0, W: 0: dutyA:  45: dutyB:  85 :dutyC: 128
Time:                81000, Counter:         -88, U: 0, V: 0, W: 0: dutyA:  45: dutyB:  85 :dutyC: 128
Time:                83000, Counter:         -87, U: 0, V: 0, W: 0: dutyA:  45: dutyB:  85 :dutyC: 128
Time:                85000, Counter:         -86, U: 0, V: 0, W: 0: dutyA:  45: dutyB:  85 :dutyC: 128
Time:                87000, Counter:         -85, U: 0, V: 0, W: 0: dutyA:  45: dutyB:  85 :dutyC: 128
Time:                89000, Counter:         -84, U: 0, V: 0, W: 0: dutyA:  45: dutyB:  85 :dutyC: 128
Time:                91000, Counter:         -83, U: 0, V: 0, W: 0: dutyA:  45: dutyB:  85 :dutyC: 128
Time:                93000, Counter:         -82, U: 0, V: 0, W: 0: dutyA:  45: dutyB:  85 :dutyC: 128
Time:                95000, Counter:         -81, U: 0, V: 0, W: 0: dutyA:  45: dutyB:  85 :dutyC: 128
Time:                97000, Counter:         -80, U: 0, V: 0, W: 0: dutyA:  45: dutyB:  85 :dutyC: 128
Time:                99000, Counter:         -79, U: 0, V: 0, W: 0: dutyA:  45: dutyB:  85 :dutyC: 128
Time:               101000, Counter:         -78, U: 0, V: 0, W: 0: dutyA:  45: dutyB:  85 :dutyC: 128
Time:               103000, Counter:         -77, U: 0, V: 0, W: 0: dutyA:  45: dutyB:  85 :dutyC: 128
Time:               105000, Counter:         -76, U: 0, V: 0, W: 0: dutyA:  45: dutyB:  85 :dutyC: 128
Time:               107000, Counter:         -75, U: 0, V: 0, W: 0: dutyA:  45: dutyB:  85 :dutyC: 128
Time:               109000, Counter:         -74, U: 0, V: 0, W: 0: dutyA:  45: dutyB:  85 :dutyC: 128
Time:               111000, Counter:         -73, U: 0, V: 0, W: 0: dutyA:  45: dutyB:  85 :dutyC: 128
Time:               113000, Counter:         -72, U: 0, V: 0, W: 0: dutyA:  45: dutyB:  85 :dutyC: 128
Time:               115000, Counter:         -71, U: 0, V: 0, W: 0: dutyA:  45: dutyB:  85 :dutyC: 128
Time:               117000, Counter:         -70, U: 0, V: 0, W: 0: dutyA:  45: dutyB:  85 :dutyC: 128
Time:               119000, Counter:         -69, U: 0, V: 0, W: 0: dutyA:  45: dutyB:  85 :dutyC: 128
Time:               121000, Counter:         -68, U: 0, V: 0, W: 0: dutyA:  45: dutyB:  85 :dutyC: 128
Time:               123000, Counter:         -67, U: 0, V: 0, W: 0: dutyA:  45: dutyB:  85 :dutyC: 128
Time:               125000, Counter:         -66, U: 0, V: 0, W: 0: dutyA:  45: dutyB:  85 :dutyC: 128
Time:               127000, Counter:         -65, U: 0, V: 0, W: 0: dutyA:  45: dutyB:  85 :dutyC: 128
Time:               129000, Counter:         -64, U: 0, V: 0, W: 0: dutyA:  45: dutyB:  85 :dutyC: 128
Time:               131000, Counter:         -63, U: 0, V: 0, W: 1: dutyA:  45: dutyB:  85 :dutyC: 128
Time:               133000, Counter:         -62, U: 0, V: 0, W: 1: dutyA:  45: dutyB:  85 :dutyC: 128
Time:               135000, Counter:         -61, U: 0, V: 0, W: 1: dutyA:  45: dutyB:  85 :dutyC: 128
Time:               137000, Counter:         -60, U: 0, V: 0, W: 1: dutyA:  45: dutyB:  85 :dutyC: 128
Time:               139000, Counter:         -59, U: 0, V: 0, W: 1: dutyA:  45: dutyB:  85 :dutyC: 128
Time:               141000, Counter:         -58, U: 0, V: 0, W: 1: dutyA:  45: dutyB:  85 :dutyC: 128
Time:               143000, Counter:         -57, U: 0, V: 0, W: 1: dutyA:  45: dutyB:  85 :dutyC: 128
Time:               145000, Counter:         -56, U: 0, V: 0, W: 1: dutyA:  45: dutyB:  85 :dutyC: 128
Time:               147000, Counter:         -55, U: 0, V: 0, W: 1: dutyA:  45: dutyB:  85 :dutyC: 128
Time:               149000, Counter:         -54, U: 0, V: 0, W: 1: dutyA:  45: dutyB:  85 :dutyC: 128
Time:               151000, Counter:         -53, U: 0, V: 0, W: 1: dutyA:  45: dutyB:  85 :dutyC: 128
Time:               153000, Counter:         -52, U: 0, V: 0, W: 1: dutyA:  45: dutyB:  85 :dutyC: 128
Time:               155000, Counter:         -51, U: 0, V: 0, W: 1: dutyA:  45: dutyB:  85 :dutyC: 128
Time:               157000, Counter:         -50, U: 0, V: 0, W: 1: dutyA:  45: dutyB:  85 :dutyC: 128
Time:               159000, Counter:         -49, U: 0, V: 0, W: 1: dutyA:  45: dutyB:  85 :dutyC: 128
Time:               161000, Counter:         -48, U: 0, V: 0, W: 1: dutyA:  45: dutyB:  85 :dutyC: 128
Time:               163000, Counter:         -47, U: 0, V: 0, W: 1: dutyA:  45: dutyB:  85 :dutyC: 128
Time:               165000, Counter:         -46, U: 0, V: 0, W: 1: dutyA:  45: dutyB:  85 :dutyC: 128
Time:               167000, Counter:         -45, U: 0, V: 0, W: 1: dutyA:  45: dutyB:  85 :dutyC: 128
Time:               169000, Counter:         -44, U: 0, V: 0, W: 1: dutyA:  45: dutyB:  85 :dutyC: 128
Time:               171000, Counter:         -43, U: 0, V: 0, W: 1: dutyA:  45: dutyB:  85 :dutyC: 128
Time:               173000, Counter:         -42, U: 0, V: 0, W: 1: dutyA:  45: dutyB:  85 :dutyC: 128
Time:               175000, Counter:         -41, U: 0, V: 1, W: 1: dutyA:  45: dutyB:  85 :dutyC: 128
Time:               177000, Counter:         -40, U: 0, V: 1, W: 1: dutyA:  45: dutyB:  85 :dutyC: 128
Time:               179000, Counter:         -39, U: 0, V: 1, W: 1: dutyA:  45: dutyB:  85 :dutyC: 128
Time:               181000, Counter:         -38, U: 0, V: 1, W: 1: dutyA:  45: dutyB:  85 :dutyC: 128
Time:               183000, Counter:         -37, U: 0, V: 1, W: 1: dutyA:  45: dutyB:  85 :dutyC: 128
Time:               185000, Counter:         -36, U: 0, V: 1, W: 1: dutyA:  45: dutyB:  85 :dutyC: 128
Time:               187000, Counter:         -35, U: 0, V: 1, W: 1: dutyA:  45: dutyB:  85 :dutyC: 128
Time:               189000, Counter:         -34, U: 0, V: 1, W: 1: dutyA:  45: dutyB:  85 :dutyC: 128
Time:               191000, Counter:         -33, U: 0, V: 1, W: 1: dutyA:  45: dutyB:  85 :dutyC: 128
Time:               193000, Counter:         -32, U: 0, V: 1, W: 1: dutyA:  45: dutyB:  85 :dutyC: 128
Time:               195000, Counter:         -31, U: 0, V: 1, W: 1: dutyA:  45: dutyB:  85 :dutyC: 128
Time:               197000, Counter:         -30, U: 0, V: 1, W: 1: dutyA:  45: dutyB:  85 :dutyC: 128
Time:               199000, Counter:         -29, U: 0, V: 1, W: 1: dutyA:  45: dutyB:  85 :dutyC: 128
Time:               201000, Counter:         -28, U: 0, V: 1, W: 1: dutyA:  45: dutyB:  85 :dutyC: 128
Time:               203000, Counter:         -27, U: 0, V: 1, W: 1: dutyA:  45: dutyB:  85 :dutyC: 128
Time:               205000, Counter:         -26, U: 0, V: 1, W: 1: dutyA:  45: dutyB:  85 :dutyC: 128
Time:               207000, Counter:         -25, U: 0, V: 1, W: 1: dutyA:  45: dutyB:  85 :dutyC: 128
Time:               209000, Counter:         -24, U: 0, V: 1, W: 1: dutyA:  45: dutyB:  85 :dutyC: 128
Time:               211000, Counter:         -23, U: 0, V: 1, W: 1: dutyA:  45: dutyB:  85 :dutyC: 128
Time:               213000, Counter:         -22, U: 0, V: 1, W: 1: dutyA:  45: dutyB:  85 :dutyC: 128
Time:               215000, Counter:         -21, U: 1, V: 1, W: 1: dutyA:  45: dutyB:  85 :dutyC: 128
Time:               217000, Counter:         -20, U: 1, V: 1, W: 1: dutyA:  45: dutyB:  85 :dutyC: 128
Time:               219000, Counter:         -19, U: 1, V: 1, W: 1: dutyA:  45: dutyB:  85 :dutyC: 128
Time:               221000, Counter:         -18, U: 1, V: 1, W: 1: dutyA:  45: dutyB:  85 :dutyC: 128
Time:               223000, Counter:         -17, U: 1, V: 1, W: 1: dutyA:  45: dutyB:  85 :dutyC: 128
Time:               225000, Counter:         -16, U: 1, V: 1, W: 1: dutyA:  45: dutyB:  85 :dutyC: 128
Time:               227000, Counter:         -15, U: 1, V: 1, W: 1: dutyA:  45: dutyB:  85 :dutyC: 128
Time:               229000, Counter:         -14, U: 1, V: 1, W: 1: dutyA:  45: dutyB:  85 :dutyC: 128
Time:               231000, Counter:         -13, U: 1, V: 1, W: 1: dutyA:  45: dutyB:  85 :dutyC: 128
Time:               233000, Counter:         -12, U: 1, V: 1, W: 1: dutyA:  45: dutyB:  85 :dutyC: 128
Time:               235000, Counter:         -11, U: 1, V: 1, W: 1: dutyA:  45: dutyB:  85 :dutyC: 128
Time:               237000, Counter:         -10, U: 1, V: 1, W: 1: dutyA:  45: dutyB:  85 :dutyC: 128
Time:               239000, Counter:          -9, U: 1, V: 1, W: 1: dutyA:  45: dutyB:  85 :dutyC: 128
Time:               241000, Counter:          -8, U: 1, V: 1, W: 1: dutyA:  45: dutyB:  85 :dutyC: 128
Time:               243000, Counter:          -7, U: 1, V: 1, W: 1: dutyA:  45: dutyB:  85 :dutyC: 128
Time:               245000, Counter:          -6, U: 1, V: 1, W: 1: dutyA:  45: dutyB:  85 :dutyC: 128
Time:               247000, Counter:          -5, U: 1, V: 1, W: 1: dutyA:  45: dutyB:  85 :dutyC: 128
Time:               249000, Counter:          -4, U: 1, V: 1, W: 1: dutyA:  45: dutyB:  85 :dutyC: 128
Time:               251000, Counter:          -3, U: 1, V: 1, W: 1: dutyA:  45: dutyB:  85 :dutyC: 128
Time:               253000, Counter:          -2, U: 1, V: 1, W: 1: dutyA:  45: dutyB:  85 :dutyC: 128
Time:               255000, Counter:          -1, U: 1, V: 1, W: 1: dutyA:  45: dutyB:  85 :dutyC: 128
Time:               257000, Counter:           0, U: 1, V: 1, W: 1: dutyA:  45: dutyB:  85 :dutyC: 128
Time:               259000, Counter:           1, U: 1, V: 1, W: 1: dutyA:  45: dutyB:  85 :dutyC: 128
Time:               261000, Counter:           2, U: 1, V: 1, W: 1: dutyA:  45: dutyB:  85 :dutyC: 128
Time:               263000, Counter:           3, U: 1, V: 1, W: 1: dutyA:  45: dutyB:  85 :dutyC: 128
Time:               265000, Counter:           4, U: 1, V: 1, W: 1: dutyA:  45: dutyB:  85 :dutyC: 128
Time:               267000, Counter:           5, U: 1, V: 1, W: 1: dutyA:  45: dutyB:  85 :dutyC: 128
Time:               269000, Counter:           6, U: 1, V: 1, W: 1: dutyA:  45: dutyB:  85 :dutyC: 128
Time:               271000, Counter:           7, U: 1, V: 1, W: 1: dutyA:  45: dutyB:  85 :dutyC: 128
Time:               273000, Counter:           8, U: 1, V: 1, W: 1: dutyA:  45: dutyB:  85 :dutyC: 128
Time:               275000, Counter:           9, U: 1, V: 1, W: 1: dutyA:  45: dutyB:  85 :dutyC: 128
Time:               277000, Counter:          10, U: 1, V: 1, W: 1: dutyA:  45: dutyB:  85 :dutyC: 128
Time:               279000, Counter:          11, U: 1, V: 1, W: 1: dutyA:  45: dutyB:  85 :dutyC: 128
Time:               281000, Counter:          12, U: 1, V: 1, W: 1: dutyA:  45: dutyB:  85 :dutyC: 128
Time:               283000, Counter:          13, U: 1, V: 1, W: 1: dutyA:  45: dutyB:  85 :dutyC: 128
Time:               285000, Counter:          14, U: 1, V: 1, W: 1: dutyA:  45: dutyB:  85 :dutyC: 128
Time:               287000, Counter:          15, U: 1, V: 1, W: 1: dutyA:  45: dutyB:  85 :dutyC: 128
Time:               289000, Counter:          16, U: 1, V: 1, W: 1: dutyA:  45: dutyB:  85 :dutyC: 128
Time:               291000, Counter:          17, U: 1, V: 1, W: 1: dutyA:  45: dutyB:  85 :dutyC: 128
Time:               293000, Counter:          18, U: 1, V: 1, W: 1: dutyA:  45: dutyB:  85 :dutyC: 128
Time:               295000, Counter:          19, U: 1, V: 1, W: 1: dutyA:  45: dutyB:  85 :dutyC: 128
Time:               297000, Counter:          20, U: 1, V: 1, W: 1: dutyA:  45: dutyB:  85 :dutyC: 128
Time:               299000, Counter:          21, U: 1, V: 1, W: 1: dutyA:  45: dutyB:  85 :dutyC: 128
Time:               301000, Counter:          22, U: 1, V: 1, W: 1: dutyA:  45: dutyB:  85 :dutyC: 128
Time:               303000, Counter:          23, U: 0, V: 1, W: 1: dutyA:  45: dutyB:  85 :dutyC: 128
Time:               305000, Counter:          24, U: 0, V: 1, W: 1: dutyA:  45: dutyB:  85 :dutyC: 128
Time:               307000, Counter:          25, U: 0, V: 1, W: 1: dutyA:  45: dutyB:  85 :dutyC: 128
Time:               309000, Counter:          26, U: 0, V: 1, W: 1: dutyA:  45: dutyB:  85 :dutyC: 128
Time:               311000, Counter:          27, U: 0, V: 1, W: 1: dutyA:  45: dutyB:  85 :dutyC: 128
Time:               313000, Counter:          28, U: 0, V: 1, W: 1: dutyA:  45: dutyB:  85 :dutyC: 128
Time:               315000, Counter:          29, U: 0, V: 1, W: 1: dutyA:  45: dutyB:  85 :dutyC: 128
Time:               317000, Counter:          30, U: 0, V: 1, W: 1: dutyA:  45: dutyB:  85 :dutyC: 128
Time:               319000, Counter:          31, U: 0, V: 1, W: 1: dutyA:  45: dutyB:  85 :dutyC: 128
Time:               321000, Counter:          32, U: 0, V: 1, W: 1: dutyA:  45: dutyB:  85 :dutyC: 128
Time:               323000, Counter:          33, U: 0, V: 1, W: 1: dutyA:  45: dutyB:  85 :dutyC: 128
Time:               325000, Counter:          34, U: 0, V: 1, W: 1: dutyA:  45: dutyB:  85 :dutyC: 128
Time:               327000, Counter:          35, U: 0, V: 1, W: 1: dutyA:  45: dutyB:  85 :dutyC: 128
Time:               329000, Counter:          36, U: 0, V: 1, W: 1: dutyA:  45: dutyB:  85 :dutyC: 128
Time:               331000, Counter:          37, U: 0, V: 1, W: 1: dutyA:  45: dutyB:  85 :dutyC: 128
Time:               333000, Counter:          38, U: 0, V: 1, W: 1: dutyA:  45: dutyB:  85 :dutyC: 128
Time:               335000, Counter:          39, U: 0, V: 1, W: 1: dutyA:  45: dutyB:  85 :dutyC: 128
Time:               337000, Counter:          40, U: 0, V: 1, W: 1: dutyA:  45: dutyB:  85 :dutyC: 128
Time:               339000, Counter:          41, U: 0, V: 1, W: 1: dutyA:  45: dutyB:  85 :dutyC: 128
Time:               341000, Counter:          42, U: 0, V: 1, W: 1: dutyA:  45: dutyB:  85 :dutyC: 128
Time:               343000, Counter:          43, U: 0, V: 0, W: 1: dutyA:  45: dutyB:  85 :dutyC: 128
Time:               345000, Counter:          44, U: 0, V: 0, W: 1: dutyA:  45: dutyB:  85 :dutyC: 128
Time:               347000, Counter:          45, U: 0, V: 0, W: 1: dutyA:  45: dutyB:  85 :dutyC: 128
Time:               349000, Counter:          46, U: 0, V: 0, W: 1: dutyA:  45: dutyB:  85 :dutyC: 128
Time:               351000, Counter:          47, U: 0, V: 0, W: 1: dutyA:  45: dutyB:  85 :dutyC: 128
Time:               353000, Counter:          48, U: 0, V: 0, W: 1: dutyA:  45: dutyB:  85 :dutyC: 128
Time:               355000, Counter:          49, U: 0, V: 0, W: 1: dutyA:  45: dutyB:  85 :dutyC: 128
Time:               357000, Counter:          50, U: 0, V: 0, W: 1: dutyA:  45: dutyB:  85 :dutyC: 128
Time:               359000, Counter:          51, U: 0, V: 0, W: 1: dutyA:  45: dutyB:  85 :dutyC: 128
Time:               361000, Counter:          52, U: 0, V: 0, W: 1: dutyA:  45: dutyB:  85 :dutyC: 128
Time:               363000, Counter:          53, U: 0, V: 0, W: 1: dutyA:  45: dutyB:  85 :dutyC: 128
Time:               365000, Counter:          54, U: 0, V: 0, W: 1: dutyA:  45: dutyB:  85 :dutyC: 128
Time:               367000, Counter:          55, U: 0, V: 0, W: 1: dutyA:  45: dutyB:  85 :dutyC: 128
Time:               369000, Counter:          56, U: 0, V: 0, W: 1: dutyA:  45: dutyB:  85 :dutyC: 128
Time:               371000, Counter:          57, U: 0, V: 0, W: 1: dutyA:  45: dutyB:  85 :dutyC: 128
Time:               373000, Counter:          58, U: 0, V: 0, W: 1: dutyA:  45: dutyB:  85 :dutyC: 128
Time:               375000, Counter:          59, U: 0, V: 0, W: 1: dutyA:  45: dutyB:  85 :dutyC: 128
Time:               377000, Counter:          60, U: 0, V: 0, W: 1: dutyA:  45: dutyB:  85 :dutyC: 128
Time:               379000, Counter:          61, U: 0, V: 0, W: 1: dutyA:  45: dutyB:  85 :dutyC: 128
Time:               381000, Counter:          62, U: 0, V: 0, W: 1: dutyA:  45: dutyB:  85 :dutyC: 128
Time:               383000, Counter:          63, U: 0, V: 0, W: 1: dutyA:  45: dutyB:  85 :dutyC: 128
Time:               385000, Counter:          64, U: 0, V: 0, W: 1: dutyA:  45: dutyB:  85 :dutyC: 128
Time:               387000, Counter:          65, U: 0, V: 0, W: 0: dutyA:  45: dutyB:  85 :dutyC: 128
Time:               389000, Counter:          66, U: 0, V: 0, W: 0: dutyA:  45: dutyB:  85 :dutyC: 128
Time:               391000, Counter:          67, U: 0, V: 0, W: 0: dutyA:  45: dutyB:  85 :dutyC: 128
Time:               393000, Counter:          68, U: 0, V: 0, W: 0: dutyA:  45: dutyB:  85 :dutyC: 128
Time:               395000, Counter:          69, U: 0, V: 0, W: 0: dutyA:  45: dutyB:  85 :dutyC: 128
Time:               397000, Counter:          70, U: 0, V: 0, W: 0: dutyA:  45: dutyB:  85 :dutyC: 128
Time:               399000, Counter:          71, U: 0, V: 0, W: 0: dutyA:  45: dutyB:  85 :dutyC: 128
Time:               401000, Counter:          72, U: 0, V: 0, W: 0: dutyA:  45: dutyB:  85 :dutyC: 128
Time:               403000, Counter:          73, U: 0, V: 0, W: 0: dutyA:  45: dutyB:  85 :dutyC: 128
Time:               405000, Counter:          74, U: 0, V: 0, W: 0: dutyA:  45: dutyB:  85 :dutyC: 128
Time:               407000, Counter:          75, U: 0, V: 0, W: 0: dutyA:  45: dutyB:  85 :dutyC: 128
Time:               409000, Counter:          76, U: 0, V: 0, W: 0: dutyA:  45: dutyB:  85 :dutyC: 128
Time:               411000, Counter:          77, U: 0, V: 0, W: 0: dutyA:  45: dutyB:  85 :dutyC: 128
Time:               413000, Counter:          78, U: 0, V: 0, W: 0: dutyA:  45: dutyB:  85 :dutyC: 128
Time:               415000, Counter:          79, U: 0, V: 0, W: 0: dutyA:  45: dutyB:  85 :dutyC: 128
Time:               417000, Counter:          80, U: 0, V: 0, W: 0: dutyA:  45: dutyB:  85 :dutyC: 128
Time:               419000, Counter:          81, U: 0, V: 0, W: 0: dutyA:  45: dutyB:  85 :dutyC: 128
Time:               421000, Counter:          82, U: 0, V: 0, W: 0: dutyA:  45: dutyB:  85 :dutyC: 128
Time:               423000, Counter:          83, U: 0, V: 0, W: 0: dutyA:  45: dutyB:  85 :dutyC: 128
Time:               425000, Counter:          84, U: 0, V: 0, W: 0: dutyA:  45: dutyB:  85 :dutyC: 128
Time:               427000, Counter:          85, U: 0, V: 0, W: 0: dutyA:  45: dutyB:  85 :dutyC: 128
Time:               429000, Counter:          86, U: 0, V: 0, W: 0: dutyA:  45: dutyB:  85 :dutyC: 128
Time:               431000, Counter:          87, U: 0, V: 0, W: 0: dutyA:  45: dutyB:  85 :dutyC: 128
Time:               433000, Counter:          88, U: 0, V: 0, W: 0: dutyA:  45: dutyB:  85 :dutyC: 128
Time:               435000, Counter:          89, U: 0, V: 0, W: 0: dutyA:  45: dutyB:  85 :dutyC: 128
Time:               437000, Counter:          90, U: 0, V: 0, W: 0: dutyA:  45: dutyB:  85 :dutyC: 128
Time:               439000, Counter:          91, U: 0, V: 0, W: 0: dutyA:  45: dutyB:  85 :dutyC: 128
Time:               441000, Counter:          92, U: 0, V: 0, W: 0: dutyA:  45: dutyB:  85 :dutyC: 128
Time:               443000, Counter:          93, U: 0, V: 0, W: 0: dutyA:  45: dutyB:  85 :dutyC: 128
Time:               445000, Counter:          94, U: 0, V: 0, W: 0: dutyA:  45: dutyB:  85 :dutyC: 128
Time:               447000, Counter:          95, U: 0, V: 0, W: 0: dutyA:  45: dutyB:  85 :dutyC: 128
Time:               449000, Counter:          96, U: 0, V: 0, W: 0: dutyA:  45: dutyB:  85 :dutyC: 128
Time:               451000, Counter:          97, U: 0, V: 0, W: 0: dutyA:  45: dutyB:  85 :dutyC: 128
Time:               453000, Counter:          98, U: 0, V: 0, W: 0: dutyA:  45: dutyB:  85 :dutyC: 128
Time:               455000, Counter:          99, U: 0, V: 0, W: 0: dutyA:  45: dutyB:  85 :dutyC: 128
Time:               457000, Counter:         100, U: 0, V: 0, W: 0: dutyA:  45: dutyB:  85 :dutyC: 128
Time:               459000, Counter:         101, U: 0, V: 0, W: 0: dutyA:  45: dutyB:  85 :dutyC: 128
Time:               461000, Counter:         102, U: 0, V: 0, W: 0: dutyA:  45: dutyB:  85 :dutyC: 128
Time:               463000, Counter:         103, U: 0, V: 0, W: 0: dutyA:  45: dutyB:  85 :dutyC: 128
Time:               465000, Counter:         104, U: 0, V: 0, W: 0: dutyA:  45: dutyB:  85 :dutyC: 128
Time:               467000, Counter:         105, U: 0, V: 0, W: 0: dutyA:  45: dutyB:  85 :dutyC: 128
Time:               469000, Counter:         106, U: 0, V: 0, W: 0: dutyA:  45: dutyB:  85 :dutyC: 128
Time:               471000, Counter:         107, U: 0, V: 0, W: 0: dutyA:  45: dutyB:  85 :dutyC: 128
Time:               473000, Counter:         108, U: 0, V: 0, W: 0: dutyA:  45: dutyB:  85 :dutyC: 128
Time:               475000, Counter:         109, U: 0, V: 0, W: 0: dutyA:  45: dutyB:  85 :dutyC: 128
Time:               477000, Counter:         110, U: 0, V: 0, W: 0: dutyA:  45: dutyB:  85 :dutyC: 128
Time:               479000, Counter:         111, U: 0, V: 0, W: 0: dutyA:  45: dutyB:  85 :dutyC: 128
Time:               481000, Counter:         112, U: 0, V: 0, W: 0: dutyA:  45: dutyB:  85 :dutyC: 128
Time:               483000, Counter:         113, U: 0, V: 0, W: 0: dutyA:  45: dutyB:  85 :dutyC: 128
Time:               485000, Counter:         114, U: 0, V: 0, W: 0: dutyA:  45: dutyB:  85 :dutyC: 128
Time:               487000, Counter:         115, U: 0, V: 0, W: 0: dutyA:  45: dutyB:  85 :dutyC: 128
Time:               489000, Counter:         116, U: 0, V: 0, W: 0: dutyA:  45: dutyB:  85 :dutyC: 128
Time:               491000, Counter:         117, U: 0, V: 0, W: 0: dutyA:  45: dutyB:  85 :dutyC: 128
Time:               493000, Counter:         118, U: 0, V: 0, W: 0: dutyA:  45: dutyB:  85 :dutyC: 128
Time:               495000, Counter:         119, U: 0, V: 0, W: 0: dutyA:  45: dutyB:  85 :dutyC: 128
Time:               497000, Counter:         120, U: 0, V: 0, W: 0: dutyA:  45: dutyB:  85 :dutyC: 128
Time:               499000, Counter:         121, U: 0, V: 0, W: 0: dutyA:  45: dutyB:  85 :dutyC: 128
Time:               501000, Counter:         122, U: 0, V: 0, W: 0: dutyA:  45: dutyB:  85 :dutyC: 128
Time:               503000, Counter:         123, U: 0, V: 0, W: 0: dutyA:  45: dutyB:  85 :dutyC: 128
Time:               505000, Counter:         124, U: 0, V: 0, W: 0: dutyA:  45: dutyB:  85 :dutyC: 128
Time:               507000, Counter:         125, U: 0, V: 0, W: 0: dutyA:  45: dutyB:  85 :dutyC: 128
Time:               509000, Counter:         126, U: 0, V: 0, W: 0: dutyA:  45: dutyB:  85 :dutyC: 128
Time:               511000, Counter:         127, U: 0, V: 0, W: 0: dutyA:  45: dutyB:  85 :dutyC: 128
Time:               513000, Counter:        -128, U: 0, V: 0, W: 0: dutyA:  45: dutyB:  85 :dutyC: 128
Time:               515000, Counter:        -127, U: 0, V: 0, W: 0: dutyA:  45: dutyB:  85 :dutyC: 128
Time:               517000, Counter:        -126, U: 0, V: 0, W: 0: dutyA:  45: dutyB:  85 :dutyC: 128
Time:               519000, Counter:        -125, U: 0, V: 0, W: 0: dutyA:  45: dutyB:  85 :dutyC: 128
Time:               521000, Counter:        -124, U: 0, V: 0, W: 0: dutyA:  45: dutyB:  85 :dutyC: 128
Time:               523000, Counter:        -123, U: 0, V: 0, W: 0: dutyA:  45: dutyB:  85 :dutyC: 128
Time:               525000, Counter:        -122, U: 0, V: 0, W: 0: dutyA:  45: dutyB:  85 :dutyC: 128
Time:               527000, Counter:        -121, U: 0, V: 0, W: 0: dutyA:  45: dutyB:  85 :dutyC: 128
Time:               529000, Counter:        -120, U: 0, V: 0, W: 0: dutyA:  45: dutyB:  85 :dutyC: 128
Time:               531000, Counter:        -119, U: 0, V: 0, W: 0: dutyA:  45: dutyB:  85 :dutyC: 128
Time:               533000, Counter:        -118, U: 0, V: 0, W: 0: dutyA:  45: dutyB:  85 :dutyC: 128
Time:               535000, Counter:        -117, U: 0, V: 0, W: 0: dutyA:  45: dutyB:  85 :dutyC: 128
Time:               537000, Counter:        -116, U: 0, V: 0, W: 0: dutyA:  45: dutyB:  85 :dutyC: 128
Time:               539000, Counter:        -115, U: 0, V: 0, W: 0: dutyA:  45: dutyB:  85 :dutyC: 128
Time:               541000, Counter:        -114, U: 0, V: 0, W: 0: dutyA:  45: dutyB:  85 :dutyC: 128
Time:               543000, Counter:        -113, U: 0, V: 0, W: 0: dutyA:  45: dutyB:  85 :dutyC: 128
Time:               545000, Counter:        -112, U: 0, V: 0, W: 0: dutyA:  45: dutyB:  85 :dutyC: 128
